Center,Brand Name,2017-01-01,2017-02-01,2017-03-01,2017-04-01,2017-05-01,2017-06-01,2017-07-01,2017-08-01,2017-09-01,2017-10-01,2017-11-01,2017-11-01,Jan'18,Feb'18,Mar'18,Apr'18,May'18,Jun'18,Jul'18,Aug'18,Sep'18,Oct'18,Nov'18,Dec'18,2019-01-01,2019-02-01,2019-03-01,2019-04-01,2019-05-01,2019-06-01,2019-07-01,2019-08-01,2019-09-01,2019-10-01,2019-11-01,2019-12-01
Vijaywada,Brand-17102,0.0498,0.04324,0.01247,0.01933,0.0102,0.0084,0.0246,0.0076,0.006,0.0022,0.0006,0.0008,0.0,0.0,0.0002,0.0,0.0,0.0,0.0,0.0,0.0,0.0,0.0,0.0,0.0,0.0,0.0,0.0,0.0,0.0,0.0,0.0,0.0,0.0,0.0,0.0
Vijaywada,Brand-814867,0.0,0.0,0.0,0.0,0.0,0.0,0.0,0.0,0.0,0.0,0.0,0.0,0.0,0.0,0.0,0.0,0.0,0.0,0.0,0.0,0.15069,0.06649,0.06464,0.01798,0.01063,0.02044,0.00544,0.0063,0.0181,0.03859,0.03139,0.0,0.0,0.0,0.0153,0.0
Vijaywada,Brand-180923,0.31028,0.30276,0.35575,0.33755,0.3658,0.3892,0.29915,0.39096,0.3123,0.2939,0.31766,0.30275,0.34759,0.2824,0.34592,0.33218,0.3239,0.3515,0.3428,0.3766,0.3744,0.41628,0.39172,0.3911,0.4076,0.4273,0.4096,0.3765,0.5068999999999999,0.4163,0.41615,0.4884,0.419,0.4406,0.14545,0.0
Vijaywada,Brand-381050,0.00135,0.007650000000000001,0.00365,0.00075,0.004999999999999999,0.0041,0.0,0.0,0.001,0.00035,0.003,0.00125,0.0005,0.00125,0.00365,0.0078,0.00275,0.0032,0.0015,0.01125,0.001,0.0,0.0005,0.0005,0.0,0.00175,0.0,0.0,0.0,0.0,0.0,0.0,0.0,0.0,0.0,0.0
Vijaywada,Brand-448852,0.053,0.0476,0.04145,0.0319,0.0449,0.0273,0.0319,0.033,0.0272,0.0277,0.0242,0.0211,0.0266,0.02762,0.0284,0.0232,0.00908,0.012,0.0201,0.0241,0.0048,0.0,0.0,0.0,0.0,0.0,0.0,0.0,0.0,0.0,0.0,0.0,0.0,0.0,0.0,0.0
Vijaywada,Brand-625072,0.0,0.0,0.0,0.002,0.002,0.0,0.0,0.0005,0.0018,0.0004,0.00344,0.00116,0.0011,0.00034,0.00156,0.0004,0.0,0.001,0.0023,0.002,0.0,0.0,0.0,0.0,0.0,0.0,0.0,0.0,0.0,0.0,0.0,0.0,0.0,0.0,0.0,0.0
Vijaywada,Brand-801117,0.0,0.0,0.0,0.0028,0.002,0.0002,0.0,0.0038,0.0018,0.0024,0.002840000000000001,0.00166,0.0119,0.0006,0.0,0.0019,0.0006,0.0071,0.0,0.0,0.0,0.0,0.0,0.0,0.0,0.0,0.0,0.0,0.0,0.0002,0.0,0.0,0.0,0.0,0.0,0.0
Vijaywada,Brand-923288,0.0486,0.0296,0.04235,0.02925,0.03575,0.019,0.01465,0.0115,0.0005,0.0,0.0,0.0,0.0,0.0,0.0,0.0,0.0,0.0,0.0,0.0,0.0,0.0,0.0,0.0,0.0,0.0,0.0,0.0,0.0,0.0,0.0,0.0,0.0,0.0,0.0,0.0
Vijaywada,Brand-530586,0.0,0.0,0.0,0.0,0.0,0.0,0.0,0.004500000000000001,0.02196,0.0195,0.0275,0.00085,0.0188,0.0128,0.00655,0.0005,0.0,0.0,0.0,0.0,0.017,0.0,0.0,0.0,0.001,0.012,0.001,0.0,0.0,0.0,0.0005,0.0005,0.0,0.0,0.0,0.0
Vijaywada,Brand-300466,0.0,0.0,0.0,0.0,0.0,0.0,0.0,0.0,0.0,0.0,0.0,0.0,0.0,0.0,0.0,0.0,0.0,0.03592,0.0095,0.006719999999999999,0.0134,0.0321,0.02978,0.048,0.07289999999999999,0.0303,0.00228,0.0084,0.00024,0.0003,0.01,0.0,0.0,0.0,0.0,0.0
Vijaywada,Brand-718570,0.0,0.0,0.0,0.0,0.0,0.0,0.0,0.0,0.0,0.0,0.0,0.0,0.0,0.0,0.0,0.0,0.0,0.03652,0.0187,0.0157,0.01,0.03871,0.04046,0.06100999999999999,0.00694,0.0163,0.01592,0.0056,0.0004,0.0006,0.006,0.0,0.0,0.0,0.0028,0.00048
Vijaywada,Brand-449828,0.0008,0.01346,0.0,0.0,0.0002,0.0058,0.0005,0.0014,0.00025,0.0,0.0036,0.0,0.0,0.0,0.0,0.0,0.013,0.0,0.0,0.004,0.0,0.0,0.0,0.0,0.0,0.0,0.0,0.0,0.0,0.00275,0.0,0.0,0.0,0.0,0.0,0.0005
Vijaywada,Brand-533381,0.0,0.0,0.0,0.0002,0.0023,0.0055,0.0,0.0002,0.0002,0.0005600000000000001,0.00204,0.0002,0.0,0.001,0.0,0.0,0.0,0.0,0.0,0.0,0.0,0.0,0.0,0.0,0.0,0.0,0.0,0.0,0.0,0.0,0.0,0.0,0.0,0.0,0.0,0.0006
Vijaywada,Brand-513281,0.0004,0.00122,0.00124,0.00194,0.00074,0.00086,0.0006000000000000001,0.001,0.0007,0.0007,0.0014,0.0,0.0,0.00064,0.0004,0.001,0.0005600000000000001,0.0004,0.0006,0.0004,0.0002,0.0006000000000000001,0.0,0.0,0.001,0.0006000000000000001,0.00112,0.0002,0.00028,0.0006000000000000001,0.0007999999999999999,0.0004,0.0,0.0,0.001,0.0008
Vijaywada,Brand-37258,0.06709999999999999,0.07367,0.09741999999999999,0.13412,0.09185,0.06931000000000001,0.1061,0.1449,0.24155,0.1415,0.12018,0.11676,0.25628,0.09172,0.0911,0.05961,0.0255,0.0933,0.047,0.06754,0.08022,0.04704,0.1269,0.01432,0.0041,0.0292,0.00882,0.03717,0.00862,0.0078,0.00722,0.02562,0.02568,0.002,0.0007,0.00165
Vijaywada,Brand-59130,0.0071,0.00891,0.0102,0.0069,0.00815,0.01684,0.0105,0.00325,0.00595,0.006749999999999999,0.0059,0.0062,0.0036,0.0057,0.006200000000000001,0.0028,0.00145,0.0022,0.0021,0.0016,0.0018,0.0018,0.0015,0.0018,0.0022,0.0018,0.0053,0.005200000000000001,0.003,0.002,0.0031,0.0023,0.0017,0.0022,0.0019,0.0017
Vijaywada,Brand-607854,0.0,0.0,0.0,0.0,0.0,0.0,0.0582,0.0102,0.006799999999999999,0.00984,0.007450000000000001,0.00446,0.02365,0.0027,0.0117,0.006,0.0121,0.0048,0.005,0.00886,0.0036,0.0048,0.0032,0.0058,0.0049,0.0023,0.00323,0.002,0.00404,0.0031,0.00213,0.00217,0.0033,0.00265,0.0024,0.00247
Vijaywada,Brand-751677,0.0,0.0,0.0,0.0,0.0006,0.006,0.0014,0.0008,0.001,0.0,0.0006,0.003,0.0004,0.003,0.0004,0.0,0.0003,0.0,0.0,0.0,0.0,0.0002,0.0006000000000000001,0.0034,0.0012,0.0,0.0016,0.0004,0.003,0.0022,0.003359999999999999,0.0013,0.0101,0.0028,0.01714,0.0029
Vijaywada,Brand-716613,0.00491,0.00676,0.00563,0.00396,0.00356,0.00214,0.0,0.0028,0.0026,0.0028,0.002,0.0022,0.0002,0.0016,0.0,0.0002,0.00173,0.004200000000000001,0.0024,0.0025,0.0032,0.0009,0.004200000000000001,0.0038,0.00446,0.01014,0.0059,0.003,0.0033,0.004099999999999999,0.004840000000000001,0.0032,0.008400000000000001,0.0042,0.01066,0.004900000000000001
Vijaywada,Brand-496752,0.00898,0.0103,0.0095,0.00744,0.00976,0.01604,0.0051,0.00784,0.00952,0.00628,0.005900000000000001,0.00976,0.0086,0.007299999999999999,0.009099999999999999,0.0088,0.00872,0.007300000000000001,0.0073,0.0078,0.0101,0.0083,0.00694,0.008660000000000001,0.00688,0.00732,0.007399999999999999,0.0109,0.0093,0.0056,0.0064,0.006039999999999999,0.00796,0.007,0.0061,0.00614
Vijaywada,Brand-993534,0.0,0.0,0.0,0.0,0.0,0.0,0.0,0.0,0.0,0.006,0.01984,0.0126,0.00966,0.0049,0.0058,0.007659999999999999,0.0095,0.02022,0.005699999999999999,0.00751,0.0073,0.01009,0.0052,0.005099999999999999,0.00675,0.004090000000000001,0.005980000000000001,0.00548,0.0083,0.0032,0.01078,0.008740000000000001,0.0061,0.008230000000000001,0.0087,0.00848
Vijaywada,Brand-190416,0.0,0.0,0.0,0.0,0.0,0.0,0.0,0.0,0.0,0.0,0.0,0.0,0.0,0.0,0.0,0.0,0.0,0.0,0.0,0.0,0.0,0.0,0.0,0.0,0.005699999999999999,0.0045,0.0,0.0158,0.0,0.0,0.0,0.0,0.0,0.0,0.0,0.01
Vijaywada,Brand-513958,0.0258,0.02863,0.01834,0.01555,0.018,0.00661,0.008199999999999999,0.0144,0.0141,0.01555,0.01443,0.01252,0.0166,0.0135,0.0121,0.002,0.0,0.0159,0.0098,0.0135,0.0109,0.009200000000000002,0.008499999999999999,0.009850000000000001,0.0022,0.004,0.01023,0.01207,0.0107,0.0116,0.0084,0.0136,0.0085,0.0067,0.004200000000000001,0.0112
Vijaywada,Brand-766687,0.02384,0.02172,0.02568,0.0209,0.02506,0.03712,0.0135,0.00604,0.01604,0.01296,0.01556,0.02038,0.01904,0.01574,0.01768,0.01354,0.01392,0.01822,0.01464,0.01484,0.0194,0.01705,0.01356,0.01674,0.01784,0.01614,0.01528,0.0155,0.01556,0.0127,0.0139,0.0117,0.0111,0.0148,0.0119,0.0148
Vijaywada,Brand-760899,0.03784999999999999,0.05135,0.05792,0.0384,0.03165,0.023,0.015,0.022,0.0241,0.01895,0.0196,0.0091,0.01189,0.0108,0.01715,0.00875,0.0117,0.015,0.0203,0.0127,0.01165,0.01255,0.0113,0.01157,0.001,0.0076,0.0079,0.009400000000000002,0.0088,0.0081,0.0301,0.0105,0.0109,0.0108,0.0104,0.0214
Vijaywada,Brand-233388,0.0005499999999999999,0.00925,0.0,0.0,0.00275,0.00875,0.006999999999999999,0.0021,0.0097,0.0105,0.02033,0.08012000000000001,0.04266,0.05212,0.10369,0.3985400000000001,1.16504,0.11393,0.31619,0.46249,0.15313,0.18358,0.52271,0.49335,0.49341,0.34759,0.45431,0.09351,0.12503,0.30904,0.05436999999999999,0.25866,0.0986,0.30868,0.0458,0.02632
Vijaywada,Brand-745602,0.0,0.0,0.0,0.0,0.0,0.0,0.0,0.0,0.0,0.0,0.0,0.0,0.0,0.0,0.0,0.0,0.0,0.0,0.0,0.0,0.0,0.0,0.0,0.0,0.0,0.0,0.0,0.0,0.08233000000000001,0.06302999999999999,0.08118,0.04264999999999999,0.03934,0.04430000000000001,0.02984,0.03086
Vijaywada,Brand-377706,0.08756,0.10954,0.05980000000000001,0.06653999999999999,0.0673,0.09569999999999998,0.06839999999999999,0.0596,0.0682,0.06709999999999999,0.06802000000000001,0.0633,0.07339999999999999,0.0596,0.06063999999999999,0.05825999999999999,0.05499999999999999,0.05420000000000001,0.04636,0.0596,0.0581,0.0606,0.05500000000000001,0.06127999999999999,0.05622000000000001,0.05757999999999999,0.0554,0.0546,0.0508,0.0486,0.04994000000000001,0.05398,0.0517,0.0488,0.0364,0.0488
Vijaywada,Brand-660490,0.0,0.0,0.0,0.0,0.0,0.0,0.0,0.0,0.0,0.0,0.0,0.0,0.0,0.0,0.0,0.0,0.0,0.0,0.0,0.0,0.0,0.0,0.0,0.0,0.0,0.07838,0.02708,0.09103,0.14232,0.05162,0.06197,0.05306,0.08886,0.03398,0.05319,0.05403000000000001
Vijaywada,Brand-659918,0.0,0.0,0.0,0.0,0.0,0.0,0.0,0.0,0.0,0.0,0.0,0.0,0.0,0.0,0.0,0.0,0.0,0.0,0.0,0.0,0.0,0.0,0.17168,0.13678,0.13183,0.16799,0.18141,0.15232,0.15636,0.11102,0.09140000000000001,0.09736,0.1073,0.18219,0.11449,0.05954000000000001
Vijaywada,Brand-964567,0.04368,0.039456,0.049424,0.04032,0.04549,0.058105,0.01721,0.041782,0.04373,0.03831,0.04072000000000001,0.04664,0.04826,0.04238,0.04568999999999999,0.047856,0.04529,0.04491000000000001,0.04284,0.0448,0.044102,0.03800000000000001,0.04249,0.06143999999999999,0.057092,0.04886,0.055642,0.052878,0.05344,0.0536,0.04622999999999999,0.05457,0.04743,0.04876,0.05521,0.06303
Vijaywada,Brand-412546,0.0,0.0,0.0,0.0,0.0,0.0,0.0,0.0,0.0,0.0,0.0,0.0,0.0,0.0,0.0,0.0,0.0,0.0,0.0,0.0,0.0,0.0,0.0,0.0,0.0,0.04156000000000001,0.01366,0.10948,0.09557,0.0736,0.1971,0.17905,0.17929,0.06535,0.126202,0.11326
Vijaywada,Brand-762698,0.1553,0.1399,0.15725,0.15195,0.15305,0.17595,0.094,0.1526,0.1666,0.1681,0.15975,0.1701,0.19305,0.14665,0.1791,0.1721,0.1767,0.1775,0.1707,0.1733,0.181,0.1765,0.1681,0.1799,0.1394,0.1609,0.1408,0.1205,0.1293,0.134,0.1056,0.1275,0.117,0.1279,0.1235,0.1159
Vijaywada,Brand-900829,0.03526,0.04166,0.03502,0.02501,0.03746,0.03968,0.0325,0.03938,0.0384,0.0412,0.0372,0.0383,0.0527,0.0343,0.0448,0.0494,0.0748,0.0989,0.1043,0.1117,0.1175,0.17254,0.1359,0.11348,0.11406,0.05907999999999999,0.11818,0.06440000000000001,0.104,0.08464,0.1456,0.191,0.07397000000000001,0.26125,0.17062,0.13882
Vijaywada,Brand-81776,0.0,0.0,0.0,0.0,0.00125,0.00675,0.004889999999999999,0.0,0.00342,0.00796,0.01239,0.05733,0.04046,0.05044,0.11078,0.09373000000000001,0.24468,0.36982,0.24495,0.18917,0.27915,0.54412,0.67339,1.17546,0.85338,0.7727800000000001,1.36422,0.19859,0.18302,0.25584,0.19503,0.30737,0.25345,0.13812,0.1125,0.15538
Vijaywada,Brand-166403,0.21512,0.20757,0.19474,0.18068,0.2073,0.2640399999999999,0.1643,0.1665,0.2249,0.194,0.2045,0.2161,0.256,0.1865,0.2208,0.2033,0.2143,0.2047,0.20916,0.28474,0.2693,0.28,0.2587,0.28952,0.28322,0.27948,0.2927,0.2951,0.304,0.295,0.2752,0.30818,0.2767,0.2895,0.28075,0.27668
Vijaywada,Brand-851146,2.7625,2.70276,1.92185,1.89005,2.2418,3.04211,2.16729,2.2278,1.996,2.05225,2.18578,2.0362,2.7347,1.815,1.96381,2.02218,2.11709,1.88772,1.94731,2.13412,1.93879,1.86526,1.96653,2.22009,2.02093,2.12289,2.2167,2.299399999999999,2.20453,2.32184,2.41704,2.37038,1.94859,1.9828,1.99377,1.9564
Vijaywada,Brand-379587,0.07898000000000001,0.11361,0.15491,0.19551,0.2859,0.27834,0.1581,0.796,0.6785,0.6055699999999999,0.7764800000000001,0.607,0.8535,0.71176,1.67864,1.13098,1.0748,1.22514,1.57828,3.09106,1.86944,2.777415,3.871505,2.49984,2.19278,3.8253,3.13035,4.31807,5.212600000000001,2.3413,2.46848,2.5286,2.331715,3.17706,2.58552,3.20516
Vijaywada,Brand-153740,2.18651,2.14763,1.24328,1.54457,1.91095,3.14394,1.84525,0.8580500000000001,0.59597,0.6567999999999999,0.83712,0.62807,0.71005,0.4537,0.5873999999999999,0.55394,0.5987600000000001,0.6238999999999999,0.5362,0.6241,0.7043,0.5630000000000001,0.4279,0.8217000000000001,0.5659500000000001,0.8612500000000001,1.0165,0.8944999999999999,1.025,1.45879,1.1524,1.857,1.76905,1.75256,1.66066,3.25146
Vijaywada,Brand-597895,6.860599999999999,7.772700000000002,4.744299999999999,4.32505,5.182199999999999,9.28219,4.84509,5.2886,4.983689999999999,5.262300000000001,4.778119999999999,5.01038,6.47918,3.9002,4.2357,4.454359999999999,4.752300000000001,4.0839,4.51482,4.80175,4.21069,4.001364,3.8103,4.313185,4.146379999999999,3.78973,3.8473,4.112069999999999,3.84856,4.509600000000001,4.669090000000001,3.99787,3.69948,3.88961,3.568,3.639142000000001
Vijaywada,Brand-383742,10.11147,8.824539999999999,11.50122,12.8962,12.83441,13.67195,10.4932,11.64478,8.813130000000001,10.73472,8.197638,10.74421,12.77394,6.63198,6.549289999999999,8.5762,8.5262,8.36822,8.12,10.30435,6.005498,6.702456999999999,5.387350000000001,6.715400000000001,5.7812,6.301500000000001,4.64405,7.6267,6.096399999999999,7.0914,6.2626,5.947,4.497199999999999,6.039400000000001,4.5557,4.21705
Vijaywada,Brand-440500,4.83989,3.39286,3.81585,4.61564,4.99546,7.25155,5.3213,6.16675,3.058,3.76695,3.668758,5.315329999999999,6.017050000000001,3.7711,3.404,3.66265,3.80015,3.5676,3.7971,4.422140000000001,3.9997,4.0219,3.58975,3.6286,4.026855,4.7884,2.98555,4.56337,4.47978,4.503699999999999,4.246494999999999,4.34826,3.976,4.0734,3.467624,4.4972
Vijaywada,Brand-807608,7.834890000000001,6.82645,7.00043,8.90049,8.77297,10.8929,7.258400000000001,7.634360000000001,6.2275,8.01546,7.21641,9.33604,12.51779,5.6422,5.96255,7.80429,8.63514,7.94429,8.421220000000002,8.52183,8.955499999999999,9.6583,8.20734,11.66572,10.72578,9.797789999999999,8.3172,9.448369999999999,10.96343,10.26228,8.99132,8.62363,8.689649999999999,8.18727,8.3445,10.63093
